{
    "AWSEBDockerrunVersion": 2,
    "containerDefinitions": [
        {
            "name": "client",
            "image": "mydockerid666343/multi-client",
            "hostname": "client",
            "essential": false,
            "memory": 128
        },
        {
            "name": "server",
            "image": "mydockerid666343/multi-server",
            "hostname": "api",
            "essential": false,
            "memory": 128
        },
        {
            "name": "worker",
            "image": "mydockerid666343/multi-worker",
            "hostname": "worker",
            "essential": false,
            "memory": 128
        },
        {
            "name": "nginx",
            "image": "mydockerid666343/multi-nginx",
            "hostname": "nginx",
            "essential": true,
            "portMapping": [
                {
                    "hostPort": 80,
                    "containerPort": 80
                }
            ],
            "links": ["client", "server"],
            "memory": 128
        }
    ]
}